{
  "search": {
    "query": "sunglasses"
  },
  "pagination": {
    "totalResults": 58,
    "page": 10,
    "pageSize": 24,
    "totalPages":3
  },
  "sorting": [],
  "results": [],
  "facets": [
    {
      "type": "range",
      "field": "price",
      "filtered": false,
      "step": 0.25,
      "range": {
        "low": 14,
        "high": 14
      }
    },
    {
      "type": "value",
      "field": "color_family",
      "filtered": false,
      "values": [
        {
          "filtered": false,
          "value": "Brown",
          "label": "Brown",
          "count": 12
        },
        {
          "filtered": false,
          "value": "Black",
          "label": "Black",
          "count": 10
        },
        {
          "filtered": false,
          "value": "Gray",
          "label": "Gray",
          "count": 9
        },
        {
          "filtered": false,
          "value": "Blue",
          "label": "Blue",
          "count": 8
        },
        {
          "filtered": false,
          "value": "Purple",
          "label": "Purple",
          "count": 6
        },
        {
          "filtered": false,
          "value": "Beige",
          "label": "Beige",
          "count": 3
        },
        {
          "filtered": false,
          "value": "Orange",
          "label": "Orange",
          "count": 3
        },
        {
          "filtered": false,
          "value": "Yellow",
          "label": "Yellow",
          "count": 2
        },
        {
          "filtered": false,
          "value": "Green",
          "label": "Green",
          "count": 1
        },
        {
          "filtered": false,
          "value": "Pink",
          "label": "Pink",
          "count": 1
        }
      ]
    },
    {
      "type": "value",
      "field": "brand",
      "filtered": false,
      "values": [
        {
          "filtered": false,
          "value": "Creative Group",
          "label": "Creative Group",
          "count": 30
        },
        {
          "filtered": false,
          "value": "Frontiree Fashion",
          "label": "Frontiree Fashion",
          "count": 3
        },
        {
          "filtered": false,
          "value": "Joia",
          "label": "Joia",
          "count": 4
        }
      ]
    },
    {
      "type": "value",
      "field": "ss_category_hierarchy",
      "filtered": false,
      "values": [
        {
          "filtered": false,
          "value": "Gifts for Her",
          "label": "Gifts for Her",
          "count": 56
        },
        {
          "filtered": false,
          "value": "All Accessories",
          "label": "All Accessories",
          "count": 49
        },
        {
          "filtered": false,
          "value": "Swimwear",
          "label": "Swimwear",
          "count": 21
        },
        {
          "filtered": false,
          "value": "What's New",
          "label": "What's New",
          "count": 20
        },
        {
          "filtered": false,
          "value": "Shop By Trend",
          "label": "Shop By Trend",
          "count": 18
        },
        {
          "filtered": false,
          "value": "Going Fast",
          "label": "Going Fast",
          "count": 5
        },
        {
          "filtered": false,
          "value": "Notify of Restock",
          "label": "Notify of Restock",
          "count": 5
        },
        {
          "filtered": false,
          "value": "All Sale",
          "label": "All Sale",
          "count": 2
        }
      ]
    },
    {
      "type": "value",
      "field": "on_sale",
      "filtered": false,
      "values": [
        {
          "filtered": false,
          "value": "Yes",
          "label": "Yes",
          "count": 5
        },
        {
          "filtered": false,
          "value": "No",
          "label": "No",
          "count": 51
        }
      ]
    },
    {
      "type": "value",
      "field": "season",
      "filtered": false,
      "values": [
        {
          "filtered": false,
          "value": "Summer",
          "label": "Summer",
          "count": 25
        }
      ]
    },
    {
      "type": "value",
      "field": "size",
      "filtered": false,
      "values": [
        {
          "filtered": false,
          "value": "ONE SIZE",
          "label": "ONE SIZE",
          "count": 14
        }
      ]
    },
    {
      "type": "value",
      "field": "collection",
      "filtered": false,
      "values": [
        {
          "filtered": false,
          "value": "Almost Famous",
          "label": "Almost Famous",
          "count": 6
        },
        {
          "filtered": false,
          "value": "Can't Miss Me",
          "label": "Can't Miss Me",
          "count": 2
        }
      ]
    },
    {
      "type": "value",
      "field": "pattern",
      "filtered": false,
      "values": [
        {
          "filtered": false,
          "value": "Print",
          "label": "Print",
          "count": 1
        }
      ]
    }
  ],
  "merchandising": {
    "campaigns": [
      {
      "id": "144498",
      "title": "glasses",
      "type": "landing-page"
      }
    ],
    "redirect": "",
    "content": {
      "header": [
        "<script data-banner-type=\"html\" data-banner-html=\"Primary banner.\" type=\"text/widget\"></script>Primary banner.",
        "<script data-banner-type=\"html\" data-banner-html=\"Primary banner.\" type=\"text/widget\"></script>Primary banner again."
      ],
      "footer": [
        "<script data-banner-type=\"html\" data-banner-html=\"footer banner.\" type=\"text/widget\"></script>footer banner.",
        "<script data-banner-type=\"html\" data-banner-html=\"footer banner.\" type=\"text/widget\"></script>footer banner again."
      ],
      "banner": [
        "<script data-banner-type=\"html\" data-banner-html=\"Secondary banner.\" type=\"text/widget\"></script>Secondary banner.",
        "<script data-banner-type=\"html\" data-banner-html=\"Secondary banner.\" type=\"text/widget\"></script>Secondary banner again.",
        "<script data-banner-type=\"html\" data-banner-html=\"Secondary banner.\" type=\"text/widget\"></script>Secondary banner a third."
      ],
      "left": [
        "<script data-banner-type=\"html\" data-banner-html=\"Left banner.\" type=\"text/widget\"></script>Left banner."
      ]
    }
  }
}