{
  "search": {
    "query": "ss test"
  },
  "filters": [],
  "pagination": {
    "totalResults": 31,
    "page": 2,
    "pageSize": 30,
    "totalPages":2
  },
  "sorting": [],
  "results": [],
  "facets": [
    {
      "type": "value",
      "field": "custom_deal_type",
      "filtered": false,
      "values": [
        {
          "filtered": false,
          "value": "FREE GIFT!",
          "label": "FREE GIFT!",
          "count": 4
        },
        {
          "filtered": false,
          "value": "FREE ROAD HAZARD!",
          "label": "FREE ROAD HAZARD!",
          "count": 2
        },
        {
          "filtered": false,
          "value": "IN CART DISCOUNT!",
          "label": "IN CART DISCOUNT!",
          "count": 4
        }
      ]
    },
    {
      "type": "value",
      "field": "custom_accessory_type",
      "filtered": false,
      "values": [
        {
          "filtered": false,
          "value": "Cargo Area Liner",
          "label": "Cargo Area Liner",
          "count": 2
        },
        {
          "filtered": false,
          "value": "Floor Mat Set",
          "label": "Floor Mat Set",
          "count": 2
        },
        {
          "filtered": false,
          "value": "Headlight Guard",
          "label": "Headlight Guard",
          "count": 1
        },
        {
          "filtered": false,
          "value": "Suspension Leveling Kit",
          "label": "Suspension Leveling Kit",
          "count": 14
        },
        {
          "filtered": false,
          "value": "Suspension Lift Kit",
          "label": "Suspension Lift Kit",
          "count": 1
        },
        {
          "filtered": false,
          "value": "Tires",
          "label": "Tires",
          "count": 2
        },
        {
          "filtered": false,
          "value": "Wheels",
          "label": "Wheels",
          "count": 6
        }
      ]
    },
    {
      "type": "value",
      "field": "accessory_location",
      "filtered": false,
      "values": [
        {
          "filtered": false,
          "value": "Front and Rear",
          "label": "Front and Rear",
          "count": 2
        }
      ]
    },
    {
      "type": "value",
      "field": "custom_tire_size_1",
      "filtered": false,
      "values": [
        {
          "filtered": false,
          "value": "215",
          "label": "215",
          "count": 1
        },
        {
          "filtered": false,
          "value": "195",
          "label": "195",
          "count": 1
        }
      ]
    },
    {
      "type": "value",
      "field": "custom_tire_size_2",
      "filtered": false,
      "values": [
        {
          "filtered": false,
          "value": "65",
          "label": "65",
          "count": 1
        },
        {
          "filtered": false,
          "value": "60",
          "label": "60",
          "count": 1
        }
      ]
    },
    {
      "type": "value",
      "field": "custom_color",
      "filtered": false,
      "values": [
        {
          "filtered": false,
          "value": "Black",
          "label": "Black",
          "count": 4
        },
        {
          "filtered": false,
          "value": "Non Chrome Wheels",
          "label": "Non Chrome Wheels",
          "count": 6
        }
      ]
    },
    {
      "type": "value",
      "field": "custom_wheel_size",
      "filtered": false,
      "values": [
        {
          "filtered": false,
          "value": "22",
          "label": "22",
          "count": 3
        },
        {
          "filtered": false,
          "value": "20",
          "label": "20",
          "count": 2
        },
        {
          "filtered": false,
          "value": "18",
          "label": "18",
          "count": 1
        },
        {
          "filtered": false,
          "value": "16",
          "label": "16",
          "count": 1
        },
        {
          "filtered": false,
          "value": "15",
          "label": "15",
          "count": 1
        }
      ]
    },
    {
      "type": "value",
      "field": "custom_tire_type",
      "filtered": false,
      "values": [
        {
          "filtered": false,
          "value": "Daily Driver - Other",
          "label": "Daily Driver - Other",
          "count": 2
        }
      ]
    },
    {
      "type": "value",
      "field": "custom_wheel_width",
      "filtered": false,
      "values": [
        {
          "filtered": false,
          "value": "9",
          "label": "9",
          "count": 1
        },
        {
          "filtered": false,
          "value": "10",
          "label": "10",
          "count": 5
        }
      ]
    },
    {
      "type": "value",
      "field": "custom_wheel_bolt_pattern",
      "filtered": false,
      "values": [
        {
          "filtered": false,
          "value": "5x112",
          "label": "5x112",
          "count": 1
        },
        {
          "filtered": false,
          "value": "5x120",
          "label": "5x120",
          "count": 1
        },
        {
          "filtered": false,
          "value": "8x6.5 (8x165.1)",
          "label": "8x6.5 (8x165.1)",
          "count": 1
        },
        {
          "filtered": false,
          "value": "8x170",
          "label": "8x170",
          "count": 2
        },
        {
          "filtered": false,
          "value": "8x180",
          "label": "8x180",
          "count": 1
        }
      ]
    },
    {
      "type": "value",
      "field": "custom_wheel_offset",
      "filtered": false,
      "values": [
        {
          "filtered": false,
          "value": "-25 MM",
          "label": "-25 MM",
          "count": 3
        },
        {
          "filtered": false,
          "value": "15MM",
          "label": "15MM",
          "count": 1
        },
        {
          "filtered": false,
          "value": "25MM",
          "label": "25MM",
          "count": 1
        },
        {
          "filtered": false,
          "value": "40MM",
          "label": "40MM",
          "count": 1
        }
      ]
    },
    {
      "type": "value",
      "field": "custom_product_brand",
      "filtered": false,
      "values": [
        {
          "filtered": false,
          "value": "Bf Goodrich",
          "label": "Bf Goodrich",
          "count": 1
        },
        {
          "filtered": false,
          "value": "Fab Fours",
          "label": "Fab Fours",
          "count": 1
        },
        {
          "filtered": false,
          "value": "Hankook",
          "label": "Hankook",
          "count": 1
        },
        {
          "filtered": false,
          "value": "Hostile",
          "label": "Hostile",
          "count": 3
        },
        {
          "filtered": false,
          "value": "Husky Liners",
          "label": "Husky Liners",
          "count": 2
        },
        {
          "filtered": false,
          "value": "Readylift",
          "label": "Readylift",
          "count": 15
        },
        {
          "filtered": false,
          "value": "Rtx",
          "label": "Rtx",
          "count": 1
        },
        {
          "filtered": false,
          "value": "Sothis",
          "label": "Sothis",
          "count": 2
        },
        {
          "filtered": false,
          "value": "Weathertech",
          "label": "Weathertech",
          "count": 2
        }
      ]
    },
    {
      "type": "value",
      "field": "custom_lift_height",
      "filtered": false,
      "values": [
        {
          "filtered": false,
          "value": "0 to 2",
          "label": "0 to 2",
          "count": 8
        },
        {
          "filtered": false,
          "value": "2.01 to 4",
          "label": "2.01 to 4",
          "count": 7
        }
      ]
    },
    {
      "type": "value",
      "field": "custom_tire_load",
      "filtered": false,
      "values": [
        {
          "filtered": false,
          "value": "Non 8 or 10 Ply",
          "label": "Non 8 or 10 Ply",
          "count": 2
        }
      ]
    },
    {
      "type": "range",
      "field": "calculated_price",
      "filtered": false,
      "step": 10,
      "range": {
        "low": 80,
        "high": 440
      },
      "active": {
        "low": 80,
        "high": 440
      }
    },
    {
      "type": "value",
      "field": "ss_vehicle",
      "filtered": false,
      "values": [
        {
          "filtered": false,
          "value": "1960",
          "label": "1960",
          "count": 1
        },
        {
          "filtered": false,
          "value": "1961",
          "label": "1961",
          "count": 1
        },
        {
          "filtered": false,
          "value": "1962",
          "label": "1962",
          "count": 1
        },
        {
          "filtered": false,
          "value": "1963",
          "label": "1963",
          "count": 1
        },
        {
          "filtered": false,
          "value": "1964",
          "label": "1964",
          "count": 1
        },
        {
          "filtered": false,
          "value": "1965",
          "label": "1965",
          "count": 1
        },
        {
          "filtered": false,
          "value": "1966",
          "label": "1966",
          "count": 1
        },
        {
          "filtered": false,
          "value": "1967",
          "label": "1967",
          "count": 1
        },
        {
          "filtered": false,
          "value": "1968",
          "label": "1968",
          "count": 1
        },
        {
          "filtered": false,
          "value": "1969",
          "label": "1969",
          "count": 1
        },
        {
          "filtered": false,
          "value": "1970",
          "label": "1970",
          "count": 1
        },
        {
          "filtered": false,
          "value": "1971",
          "label": "1971",
          "count": 1
        },
        {
          "filtered": false,
          "value": "1972",
          "label": "1972",
          "count": 1
        },
        {
          "filtered": false,
          "value": "1973",
          "label": "1973",
          "count": 1
        },
        {
          "filtered": false,
          "value": "1974",
          "label": "1974",
          "count": 1
        },
        {
          "filtered": false,
          "value": "1975",
          "label": "1975",
          "count": 1
        },
        {
          "filtered": false,
          "value": "1976",
          "label": "1976",
          "count": 2
        },
        {
          "filtered": false,
          "value": "1977",
          "label": "1977",
          "count": 2
        },
        {
          "filtered": false,
          "value": "1978",
          "label": "1978",
          "count": 2
        },
        {
          "filtered": false,
          "value": "1979",
          "label": "1979",
          "count": 2
        },
        {
          "filtered": false,
          "value": "1980",
          "label": "1980",
          "count": 3
        },
        {
          "filtered": false,
          "value": "1981",
          "label": "1981",
          "count": 3
        },
        {
          "filtered": false,
          "value": "1982",
          "label": "1982",
          "count": 3
        },
        {
          "filtered": false,
          "value": "1983",
          "label": "1983",
          "count": 3
        },
        {
          "filtered": false,
          "value": "1984",
          "label": "1984",
          "count": 3
        },
        {
          "filtered": false,
          "value": "1985",
          "label": "1985",
          "count": 3
        },
        {
          "filtered": false,
          "value": "1986",
          "label": "1986",
          "count": 3
        },
        {
          "filtered": false,
          "value": "1987",
          "label": "1987",
          "count": 3
        },
        {
          "filtered": false,
          "value": "1988",
          "label": "1988",
          "count": 3
        },
        {
          "filtered": false,
          "value": "1989",
          "label": "1989",
          "count": 3
        },
        {
          "filtered": false,
          "value": "1990",
          "label": "1990",
          "count": 3
        },
        {
          "filtered": false,
          "value": "1991",
          "label": "1991",
          "count": 3
        },
        {
          "filtered": false,
          "value": "1992",
          "label": "1992",
          "count": 3
        },
        {
          "filtered": false,
          "value": "1993",
          "label": "1993",
          "count": 3
        },
        {
          "filtered": false,
          "value": "1994",
          "label": "1994",
          "count": 3
        },
        {
          "filtered": false,
          "value": "1995",
          "label": "1995",
          "count": 3
        },
        {
          "filtered": false,
          "value": "1996",
          "label": "1996",
          "count": 3
        },
        {
          "filtered": false,
          "value": "1997",
          "label": "1997",
          "count": 3
        },
        {
          "filtered": false,
          "value": "1998",
          "label": "1998",
          "count": 3
        },
        {
          "filtered": false,
          "value": "1999",
          "label": "1999",
          "count": 5
        },
        {
          "filtered": false,
          "value": "2000",
          "label": "2000",
          "count": 5
        },
        {
          "filtered": false,
          "value": "2001",
          "label": "2001",
          "count": 5
        },
        {
          "filtered": false,
          "value": "2002",
          "label": "2002",
          "count": 5
        },
        {
          "filtered": false,
          "value": "2003",
          "label": "2003",
          "count": 5
        },
        {
          "filtered": false,
          "value": "2004",
          "label": "2004",
          "count": 5
        },
        {
          "filtered": false,
          "value": "2005",
          "label": "2005",
          "count": 5
        },
        {
          "filtered": false,
          "value": "2006",
          "label": "2006",
          "count": 5
        },
        {
          "filtered": false,
          "value": "2007",
          "label": "2007",
          "count": 5
        },
        {
          "filtered": false,
          "value": "2008",
          "label": "2008",
          "count": 5
        },
        {
          "filtered": false,
          "value": "2009",
          "label": "2009",
          "count": 5
        },
        {
          "filtered": false,
          "value": "2010",
          "label": "2010",
          "count": 5
        },
        {
          "filtered": false,
          "value": "2011",
          "label": "2011",
          "count": 6
        },
        {
          "filtered": false,
          "value": "2012",
          "label": "2012",
          "count": 6
        },
        {
          "filtered": false,
          "value": "2013",
          "label": "2013",
          "count": 6
        },
        {
          "filtered": false,
          "value": "2014",
          "label": "2014",
          "count": 6
        },
        {
          "filtered": false,
          "value": "2015",
          "label": "2015",
          "count": 6
        },
        {
          "filtered": false,
          "value": "2016",
          "label": "2016",
          "count": 6
        },
        {
          "filtered": false,
          "value": "2017",
          "label": "2017",
          "count": 6
        },
        {
          "filtered": false,
          "value": "2018",
          "label": "2018",
          "count": 6
        },
        {
          "filtered": false,
          "value": "2019",
          "label": "2019",
          "count": 6
        },
        {
          "filtered": false,
          "value": "2020",
          "label": "2020",
          "count": 6
        },
        {
          "filtered": false,
          "value": "2021",
          "label": "2021",
          "count": 6
        }
      ]
    },
    {
      "type": "value",
      "field": "ss_accessory",
      "filtered": false,
      "values": [
        {
          "filtered": false,
          "value": "Body Protection & Doors",
          "label": "Body Protection & Doors",
          "count": 1
        },
        {
          "filtered": false,
          "value": "Floor Mats & Interior Liners",
          "label": "Floor Mats & Interior Liners",
          "count": 4
        },
        {
          "filtered": false,
          "value": "Suspension",
          "label": "Suspension",
          "count": 12
        }
      ]
    },
    {
      "type": "value",
      "field": "ss_tire",
      "filtered": false,
      "values": [
        {
          "filtered": false,
          "value": "1980",
          "label": "1980",
          "count": 1
        },
        {
          "filtered": false,
          "value": "1981",
          "label": "1981",
          "count": 1
        },
        {
          "filtered": false,
          "value": "1982",
          "label": "1982",
          "count": 1
        },
        {
          "filtered": false,
          "value": "1983",
          "label": "1983",
          "count": 1
        },
        {
          "filtered": false,
          "value": "1984",
          "label": "1984",
          "count": 1
        },
        {
          "filtered": false,
          "value": "1985",
          "label": "1985",
          "count": 1
        },
        {
          "filtered": false,
          "value": "1986",
          "label": "1986",
          "count": 1
        },
        {
          "filtered": false,
          "value": "1987",
          "label": "1987",
          "count": 1
        },
        {
          "filtered": false,
          "value": "1988",
          "label": "1988",
          "count": 1
        },
        {
          "filtered": false,
          "value": "1989",
          "label": "1989",
          "count": 1
        },
        {
          "filtered": false,
          "value": "1990",
          "label": "1990",
          "count": 1
        },
        {
          "filtered": false,
          "value": "1991",
          "label": "1991",
          "count": 1
        },
        {
          "filtered": false,
          "value": "1992",
          "label": "1992",
          "count": 1
        },
        {
          "filtered": false,
          "value": "1993",
          "label": "1993",
          "count": 1
        },
        {
          "filtered": false,
          "value": "1994",
          "label": "1994",
          "count": 1
        },
        {
          "filtered": false,
          "value": "1995",
          "label": "1995",
          "count": 1
        },
        {
          "filtered": false,
          "value": "1996",
          "label": "1996",
          "count": 2
        },
        {
          "filtered": false,
          "value": "1997",
          "label": "1997",
          "count": 2
        },
        {
          "filtered": false,
          "value": "1998",
          "label": "1998",
          "count": 2
        },
        {
          "filtered": false,
          "value": "1999",
          "label": "1999",
          "count": 2
        },
        {
          "filtered": false,
          "value": "2000",
          "label": "2000",
          "count": 2
        },
        {
          "filtered": false,
          "value": "2001",
          "label": "2001",
          "count": 2
        },
        {
          "filtered": false,
          "value": "2002",
          "label": "2002",
          "count": 2
        },
        {
          "filtered": false,
          "value": "2003",
          "label": "2003",
          "count": 2
        },
        {
          "filtered": false,
          "value": "2004",
          "label": "2004",
          "count": 2
        },
        {
          "filtered": false,
          "value": "2005",
          "label": "2005",
          "count": 2
        },
        {
          "filtered": false,
          "value": "2006",
          "label": "2006",
          "count": 2
        },
        {
          "filtered": false,
          "value": "2007",
          "label": "2007",
          "count": 2
        },
        {
          "filtered": false,
          "value": "2008",
          "label": "2008",
          "count": 2
        },
        {
          "filtered": false,
          "value": "2009",
          "label": "2009",
          "count": 2
        },
        {
          "filtered": false,
          "value": "2010",
          "label": "2010",
          "count": 2
        },
        {
          "filtered": false,
          "value": "2011",
          "label": "2011",
          "count": 2
        },
        {
          "filtered": false,
          "value": "2012",
          "label": "2012",
          "count": 2
        },
        {
          "filtered": false,
          "value": "2013",
          "label": "2013",
          "count": 2
        },
        {
          "filtered": false,
          "value": "2014",
          "label": "2014",
          "count": 2
        },
        {
          "filtered": false,
          "value": "2015",
          "label": "2015",
          "count": 2
        },
        {
          "filtered": false,
          "value": "2016",
          "label": "2016",
          "count": 2
        },
        {
          "filtered": false,
          "value": "2017",
          "label": "2017",
          "count": 2
        },
        {
          "filtered": false,
          "value": "2018",
          "label": "2018",
          "count": 2
        },
        {
          "filtered": false,
          "value": "2019",
          "label": "2019",
          "count": 1
        },
        {
          "filtered": false,
          "value": "2020",
          "label": "2020",
          "count": 1
        },
        {
          "filtered": false,
          "value": "2021",
          "label": "2021",
          "count": 1
        }
      ]
    }
  ],
  "merchandising": {
    "redirect": "",
    "campaigns": [
      {
        "id": "144744",
        "title": "Global Campaign (In stock, new, season, best selling)",
        "type": "global"
      },
      {
        "id": "119988",
        "title": "DND: Location and Inline: United States - Free Shipping ",
        "type": "location"
      }
    ],
    "content": {
      "header": [
        "<script data-banner-type=\"html\" data-banner-html=\"Prime\" type=\"text/widget\"></script>Prime"
      ],
      "banner": [
        "<script data-banner-type=\"html\" data-banner-html=\"Secondary\" type=\"text/widget\"></script>Secondary"
      ],
      "footer": [
        "<script data-banner-type=\"html\" data-banner-html=\"Footer Banner\" type=\"text/widget\"></script>Footer Banner"
      ],
      "left": [
        "<script data-banner-type=\"html\" data-banner-html=\"Left Banner\" type=\"text/widget\"></script>Left Banner"
      ],
      "inline": [
        {
          "config": {
            "position": {
              "index": 2
            }
          },
          "value": "<script data-banner-type=\"html\" data-banner-html=\"Here is a thing!\" type=\"text/widget\"></script>Here is a thing!"
        },
        {
          "config": {
            "position": {
              "index": 3
            }
          },
          "value": "<script data-banner-type=\"video\" data-banner-html=\"\" data-video-url=\"https://www.youtube.com/watch?v=sHZyozoOWGQ\" type=\"text/widget\"></script><iframe src=\"https://youtube.com/embed/sHZyozoOWGQ\" width=\"400\" height=\"300\"></iframe>"
        },
        {
          "config": {
            "position": {
              "index": 49
            }
          },
          "value": "<script data-banner-type=\"image\" data-banner-html=\"\" data-image-url=\"https://cdn1.bigcommerce.com/server3000/1gfd17pa/product_images/uploaded_images/bbwheels-aboutus-image-mobile-smaller-5.jpg\" type=\"text/widget\" data-target-url=\"https://www.bbwheelsonline.com/about-us/\"></script><a href=\"https://www.bbwheelsonline.com/about-us/\"><img src=\"https://cdn1.bigcommerce.com/server3000/1gfd17pa/product_images/uploaded_images/bbwheels-aboutus-image-mobile-smaller-5.jpg\" style=\"width: 100%;\"></a>"
        }
      ]
    }
  }
}